%TF.GenerationSoftware,KiCad,Pcbnew,7.0.9*%
%TF.CreationDate,2024-03-05T11:32:53+01:00*%
%TF.ProjectId,PiPicoFR1,50695069-636f-4465-9231-2e6b69636164,rev?*%
%TF.SameCoordinates,Original*%
%TF.FileFunction,Soldermask,Bot*%
%TF.FilePolarity,Negative*%
%FSLAX46Y46*%
G04 Gerber Fmt 4.6, Leading zero omitted, Abs format (unit mm)*
G04 Created by KiCad (PCBNEW 7.0.9) date 2024-03-05 11:32:53*
%MOMM*%
%LPD*%
G01*
G04 APERTURE LIST*
%ADD10C,0.650000*%
%ADD11O,1.800000X1.000000*%
%ADD12O,2.100000X1.000000*%
%ADD13R,1.700000X1.700000*%
%ADD14O,1.700000X1.700000*%
%ADD15R,1.400000X1.400000*%
%ADD16C,1.400000*%
%ADD17C,3.250000*%
%ADD18R,1.800000X1.800000*%
%ADD19C,1.800000*%
%ADD20C,2.000000*%
%ADD21C,3.000000*%
G04 APERTURE END LIST*
D10*
%TO.C,J4*%
X123595000Y-97165000D03*
X123595000Y-91385000D03*
D11*
X127275000Y-98595000D03*
D12*
X123075000Y-98595000D03*
X123075000Y-89955000D03*
D11*
X127275000Y-89955000D03*
%TD*%
D13*
%TO.C,J14*%
X91070000Y-126850000D03*
D14*
X93610000Y-126850000D03*
X96150000Y-126850000D03*
%TD*%
D15*
%TO.C,K2*%
X77150000Y-119850000D03*
D16*
X77150000Y-114770000D03*
X77150000Y-109690000D03*
X77150000Y-104610000D03*
%TD*%
D13*
%TO.C,J11*%
X90590000Y-109390000D03*
D14*
X90590000Y-111930000D03*
X90590000Y-114470000D03*
X90590000Y-117010000D03*
%TD*%
D13*
%TO.C,J1*%
X66065000Y-64000000D03*
D14*
X68605000Y-64000000D03*
X71145000Y-64000000D03*
X73685000Y-64000000D03*
X76225000Y-64000000D03*
X78765000Y-64000000D03*
X81305000Y-64000000D03*
X83845000Y-64000000D03*
%TD*%
D13*
%TO.C,J10*%
X64515000Y-126850000D03*
D14*
X67055000Y-126850000D03*
X69595000Y-126850000D03*
X72135000Y-126850000D03*
X74675000Y-126850000D03*
X77215000Y-126850000D03*
X79755000Y-126850000D03*
X82295000Y-126850000D03*
%TD*%
D13*
%TO.C,J12*%
X97225000Y-109425000D03*
D14*
X97225000Y-111965000D03*
X97225000Y-114505000D03*
X97225000Y-117045000D03*
%TD*%
D15*
%TO.C,K4*%
X65150000Y-119850000D03*
D16*
X65150000Y-114770000D03*
X65150000Y-109690000D03*
X65150000Y-104610000D03*
%TD*%
D13*
%TO.C,J5*%
X124870000Y-117880000D03*
D14*
X124870000Y-120420000D03*
X124870000Y-122960000D03*
%TD*%
D13*
%TO.C,J3*%
X54000000Y-72365000D03*
D14*
X54000000Y-74905000D03*
X54000000Y-77445000D03*
X54000000Y-79985000D03*
X54000000Y-82525000D03*
X54000000Y-85065000D03*
X54000000Y-87605000D03*
X54000000Y-90145000D03*
X54000000Y-92685000D03*
X54000000Y-95225000D03*
X54000000Y-97765000D03*
X54000000Y-100305000D03*
X54000000Y-102845000D03*
X54000000Y-105385000D03*
X54000000Y-107925000D03*
X54000000Y-110465000D03*
%TD*%
D15*
%TO.C,K3*%
X83150000Y-119850000D03*
D16*
X83150000Y-114770000D03*
X83150000Y-109690000D03*
X83150000Y-104610000D03*
%TD*%
D17*
%TO.C,J13*%
X106515000Y-70260000D03*
X95085000Y-70260000D03*
D18*
X105245000Y-76610000D03*
D19*
X103975000Y-79150000D03*
X102705000Y-76610000D03*
X101435000Y-79150000D03*
X100165000Y-76610000D03*
X98895000Y-79150000D03*
X97625000Y-76610000D03*
X96355000Y-79150000D03*
D20*
X107430000Y-66200000D03*
X104890000Y-66200000D03*
X96710000Y-66200000D03*
X94170000Y-66200000D03*
D21*
X108545000Y-73310000D03*
X93055000Y-73310000D03*
%TD*%
D15*
%TO.C,K1*%
X71150000Y-119850000D03*
D16*
X71150000Y-114770000D03*
X71150000Y-109690000D03*
X71150000Y-104610000D03*
%TD*%
D13*
%TO.C,J9*%
X105795000Y-126850000D03*
D14*
X108335000Y-126850000D03*
X110875000Y-126850000D03*
%TD*%
M02*
