%TF.GenerationSoftware,KiCad,Pcbnew,7.0.9*%
%TF.CreationDate,2024-03-05T11:32:53+01:00*%
%TF.ProjectId,PiPicoFR1,50695069-636f-4465-9231-2e6b69636164,rev?*%
%TF.SameCoordinates,Original*%
%TF.FileFunction,Profile,NP*%
%FSLAX46Y46*%
G04 Gerber Fmt 4.6, Leading zero omitted, Abs format (unit mm)*
G04 Created by KiCad (PCBNEW 7.0.9) date 2024-03-05 11:32:53*
%MOMM*%
%LPD*%
G01*
G04 APERTURE LIST*
%TA.AperFunction,Profile*%
%ADD10C,0.100000*%
%TD*%
G04 APERTURE END LIST*
D10*
X50000000Y-60000000D02*
X130000000Y-60000000D01*
X50000000Y-130000000D02*
X50000000Y-60000000D01*
X130000000Y-130000000D02*
X50000000Y-130000000D01*
X130000000Y-60000000D02*
X130000000Y-130000000D01*
M02*
