%TF.GenerationSoftware,KiCad,Pcbnew,7.0.9*%
%TF.CreationDate,2024-03-05T11:32:51+01:00*%
%TF.ProjectId,PiPicoFR1,50695069-636f-4465-9231-2e6b69636164,rev?*%
%TF.SameCoordinates,Original*%
%TF.FileFunction,Paste,Top*%
%TF.FilePolarity,Positive*%
%FSLAX46Y46*%
G04 Gerber Fmt 4.6, Leading zero omitted, Abs format (unit mm)*
G04 Created by KiCad (PCBNEW 7.0.9) date 2024-03-05 11:32:51*
%MOMM*%
%LPD*%
G01*
G04 APERTURE LIST*
G04 Aperture macros list*
%AMRoundRect*
0 Rectangle with rounded corners*
0 $1 Rounding radius*
0 $2 $3 $4 $5 $6 $7 $8 $9 X,Y pos of 4 corners*
0 Add a 4 corners polygon primitive as box body*
4,1,4,$2,$3,$4,$5,$6,$7,$8,$9,$2,$3,0*
0 Add four circle primitives for the rounded corners*
1,1,$1+$1,$2,$3*
1,1,$1+$1,$4,$5*
1,1,$1+$1,$6,$7*
1,1,$1+$1,$8,$9*
0 Add four rect primitives between the rounded corners*
20,1,$1+$1,$2,$3,$4,$5,0*
20,1,$1+$1,$4,$5,$6,$7,0*
20,1,$1+$1,$6,$7,$8,$9,0*
20,1,$1+$1,$8,$9,$2,$3,0*%
G04 Aperture macros list end*
%ADD10R,1.240000X0.600000*%
%ADD11R,1.240000X0.300000*%
%ADD12RoundRect,0.135000X0.185000X-0.135000X0.185000X0.135000X-0.185000X0.135000X-0.185000X-0.135000X0*%
%ADD13RoundRect,0.150000X0.150000X-0.512500X0.150000X0.512500X-0.150000X0.512500X-0.150000X-0.512500X0*%
%ADD14RoundRect,0.225000X-0.250000X0.225000X-0.250000X-0.225000X0.250000X-0.225000X0.250000X0.225000X0*%
%ADD15RoundRect,0.140000X-0.170000X0.140000X-0.170000X-0.140000X0.170000X-0.140000X0.170000X0.140000X0*%
%ADD16RoundRect,0.140000X0.140000X0.170000X-0.140000X0.170000X-0.140000X-0.170000X0.140000X-0.170000X0*%
%ADD17R,1.500000X2.000000*%
%ADD18R,3.800000X2.000000*%
%ADD19RoundRect,0.135000X-0.135000X-0.185000X0.135000X-0.185000X0.135000X0.185000X-0.135000X0.185000X0*%
%ADD20RoundRect,0.225000X0.225000X0.250000X-0.225000X0.250000X-0.225000X-0.250000X0.225000X-0.250000X0*%
%ADD21RoundRect,0.140000X0.170000X-0.140000X0.170000X0.140000X-0.170000X0.140000X-0.170000X-0.140000X0*%
%ADD22RoundRect,0.140000X-0.140000X-0.170000X0.140000X-0.170000X0.140000X0.170000X-0.140000X0.170000X0*%
%ADD23RoundRect,0.150000X-0.650000X-0.150000X0.650000X-0.150000X0.650000X0.150000X-0.650000X0.150000X0*%
%ADD24RoundRect,0.135000X0.135000X0.185000X-0.135000X0.185000X-0.135000X-0.185000X0.135000X-0.185000X0*%
%ADD25R,1.000000X2.750000*%
%ADD26RoundRect,0.375000X-0.375000X-1.125000X0.375000X-1.125000X0.375000X1.125000X-0.375000X1.125000X0*%
%ADD27R,1.400000X1.200000*%
%ADD28RoundRect,0.135000X-0.185000X0.135000X-0.185000X-0.135000X0.185000X-0.135000X0.185000X0.135000X0*%
%ADD29RoundRect,0.100000X-0.637500X-0.100000X0.637500X-0.100000X0.637500X0.100000X-0.637500X0.100000X0*%
%ADD30RoundRect,0.100000X0.637500X0.100000X-0.637500X0.100000X-0.637500X-0.100000X0.637500X-0.100000X0*%
%ADD31RoundRect,0.225000X-0.225000X-0.250000X0.225000X-0.250000X0.225000X0.250000X-0.225000X0.250000X0*%
%ADD32RoundRect,0.250000X-0.285000X0.285000X-0.285000X-0.285000X0.285000X-0.285000X0.285000X0.285000X0*%
%ADD33RoundRect,0.062500X-0.062500X0.337500X-0.062500X-0.337500X0.062500X-0.337500X0.062500X0.337500X0*%
%ADD34RoundRect,0.062500X-0.337500X0.062500X-0.337500X-0.062500X0.337500X-0.062500X0.337500X0.062500X0*%
%ADD35RoundRect,0.250000X-0.325000X-0.650000X0.325000X-0.650000X0.325000X0.650000X-0.325000X0.650000X0*%
%ADD36RoundRect,0.249999X-0.395001X-0.395001X0.395001X-0.395001X0.395001X0.395001X-0.395001X0.395001X0*%
%ADD37RoundRect,0.050000X-0.387500X-0.050000X0.387500X-0.050000X0.387500X0.050000X-0.387500X0.050000X0*%
%ADD38RoundRect,0.050000X-0.050000X-0.387500X0.050000X-0.387500X0.050000X0.387500X-0.050000X0.387500X0*%
G04 APERTURE END LIST*
D10*
%TO.C,J4*%
X122475000Y-97475000D03*
X122475000Y-96675000D03*
D11*
X122475000Y-95525000D03*
X122475000Y-94525000D03*
X122475000Y-94025000D03*
X122475000Y-93025000D03*
D10*
X122475000Y-91875000D03*
X122475000Y-91075000D03*
X122475000Y-91075000D03*
X122475000Y-91875000D03*
D11*
X122475000Y-92525000D03*
X122475000Y-93525000D03*
X122475000Y-95025000D03*
X122475000Y-96025000D03*
D10*
X122475000Y-96675000D03*
X122475000Y-97475000D03*
%TD*%
D12*
%TO.C,R9*%
X106050000Y-84670000D03*
X106050000Y-83650000D03*
%TD*%
D13*
%TO.C,Q1*%
X70025000Y-100637500D03*
X71925000Y-100637500D03*
X70975000Y-98362500D03*
%TD*%
D14*
%TO.C,L2*%
X93850000Y-92600000D03*
X93850000Y-94150000D03*
%TD*%
D15*
%TO.C,C24*%
X96150000Y-99470000D03*
X96150000Y-100430000D03*
%TD*%
D16*
%TO.C,C35*%
X101410000Y-82700000D03*
X100450000Y-82700000D03*
%TD*%
%TO.C,C30*%
X96055000Y-92400000D03*
X95095000Y-92400000D03*
%TD*%
D17*
%TO.C,U4*%
X117950000Y-84350000D03*
X120250000Y-84350000D03*
D18*
X120250000Y-78050000D03*
D17*
X122550000Y-84350000D03*
%TD*%
D16*
%TO.C,C17*%
X110055000Y-112750000D03*
X109095000Y-112750000D03*
%TD*%
D19*
%TO.C,R23*%
X116065000Y-93750000D03*
X117085000Y-93750000D03*
%TD*%
D20*
%TO.C,C4*%
X74100000Y-94025000D03*
X72550000Y-94025000D03*
%TD*%
D21*
%TO.C,C3*%
X73100000Y-91835000D03*
X73100000Y-90875000D03*
%TD*%
%TO.C,C2*%
X73100000Y-89930000D03*
X73100000Y-88970000D03*
%TD*%
D12*
%TO.C,R15*%
X100900000Y-84695000D03*
X100900000Y-83675000D03*
%TD*%
D22*
%TO.C,C26*%
X100715000Y-90150000D03*
X101675000Y-90150000D03*
%TD*%
D21*
%TO.C,C16*%
X118375000Y-109960000D03*
X118375000Y-109000000D03*
%TD*%
D22*
%TO.C,C37*%
X93900000Y-91400000D03*
X94860000Y-91400000D03*
%TD*%
D12*
%TO.C,R11*%
X101900000Y-83675000D03*
X101900000Y-84695000D03*
%TD*%
D23*
%TO.C,U3*%
X103650000Y-104880000D03*
X103650000Y-106150000D03*
X103650000Y-107420000D03*
X103650000Y-108690000D03*
X110850000Y-108690000D03*
X110850000Y-107420000D03*
X110850000Y-106150000D03*
X110850000Y-104880000D03*
%TD*%
D24*
%TO.C,R17*%
X93435000Y-95350000D03*
X92415000Y-95350000D03*
%TD*%
D16*
%TO.C,C28*%
X101405000Y-101825000D03*
X100445000Y-101825000D03*
%TD*%
D24*
%TO.C,R18*%
X94985000Y-96825000D03*
X93965000Y-96825000D03*
%TD*%
D21*
%TO.C,C15*%
X114950000Y-109930000D03*
X114950000Y-108970000D03*
%TD*%
%TO.C,C21*%
X113360000Y-126115000D03*
X113360000Y-127075000D03*
%TD*%
D25*
%TO.C,SW1*%
X102500000Y-117360000D03*
X102500000Y-111600000D03*
X106500000Y-117360000D03*
X106500000Y-111600000D03*
%TD*%
D22*
%TO.C,C5*%
X78460000Y-94620000D03*
X79420000Y-94620000D03*
%TD*%
D16*
%TO.C,C6*%
X68525000Y-97525000D03*
X67565000Y-97525000D03*
%TD*%
D26*
%TO.C,J6*%
X82940000Y-79475000D03*
X84210000Y-83975000D03*
X85480000Y-79475000D03*
X86750000Y-83975000D03*
%TD*%
D12*
%TO.C,R13*%
X105025000Y-84670000D03*
X105025000Y-83650000D03*
%TD*%
D22*
%TO.C,C33*%
X104020000Y-85625000D03*
X104980000Y-85625000D03*
%TD*%
D20*
%TO.C,L1*%
X94900000Y-99725000D03*
X93350000Y-99725000D03*
%TD*%
D26*
%TO.C,J2*%
X75535000Y-71475000D03*
X76805000Y-75975000D03*
X78075000Y-71475000D03*
X79345000Y-75975000D03*
%TD*%
D15*
%TO.C,C18*%
X115650000Y-121920000D03*
X115650000Y-122880000D03*
%TD*%
D12*
%TO.C,R10*%
X102925000Y-84695000D03*
X102925000Y-83675000D03*
%TD*%
D16*
%TO.C,C20*%
X110040000Y-117760000D03*
X109080000Y-117760000D03*
%TD*%
D19*
%TO.C,R4*%
X116260000Y-124420000D03*
X117280000Y-124420000D03*
%TD*%
D15*
%TO.C,C10*%
X116625000Y-121920000D03*
X116625000Y-122880000D03*
%TD*%
D27*
%TO.C,Y1*%
X117285000Y-126115000D03*
X115085000Y-126115000D03*
X115085000Y-127815000D03*
X117285000Y-127815000D03*
%TD*%
D20*
%TO.C,C8*%
X119775000Y-86700000D03*
X118225000Y-86700000D03*
%TD*%
D22*
%TO.C,C32*%
X102750000Y-90140000D03*
X103710000Y-90140000D03*
%TD*%
D24*
%TO.C,R7*%
X72000000Y-73900000D03*
X70980000Y-73900000D03*
%TD*%
D21*
%TO.C,C29*%
X106350000Y-95105000D03*
X106350000Y-94145000D03*
%TD*%
%TO.C,C22*%
X118960000Y-127070000D03*
X118960000Y-126110000D03*
%TD*%
D28*
%TO.C,R3*%
X117225000Y-106955000D03*
X117225000Y-107975000D03*
%TD*%
D15*
%TO.C,C27*%
X96150000Y-97570000D03*
X96150000Y-98530000D03*
%TD*%
D12*
%TO.C,R16*%
X99900000Y-84695000D03*
X99900000Y-83675000D03*
%TD*%
D13*
%TO.C,Q2*%
X76075000Y-100625000D03*
X77975000Y-100625000D03*
X77025000Y-98350000D03*
%TD*%
D22*
%TO.C,C19*%
X120745000Y-117575000D03*
X121705000Y-117575000D03*
%TD*%
D24*
%TO.C,R1*%
X110070000Y-111300000D03*
X109050000Y-111300000D03*
%TD*%
D21*
%TO.C,C12*%
X113975000Y-109925000D03*
X113975000Y-108965000D03*
%TD*%
D16*
%TO.C,C25*%
X96050000Y-94350000D03*
X95090000Y-94350000D03*
%TD*%
D24*
%TO.C,R8*%
X65865000Y-81675000D03*
X64845000Y-81675000D03*
%TD*%
%TO.C,R21*%
X98385000Y-86600000D03*
X97365000Y-86600000D03*
%TD*%
D29*
%TO.C,U1*%
X75987500Y-89075000D03*
X75987500Y-89725000D03*
X75987500Y-90375000D03*
X75987500Y-91025000D03*
X75987500Y-91675000D03*
X75987500Y-92325000D03*
X75987500Y-92975000D03*
X81712500Y-92975000D03*
X81712500Y-92325000D03*
X81712500Y-91675000D03*
X81712500Y-91025000D03*
X81712500Y-90375000D03*
X81712500Y-89725000D03*
X81712500Y-89075000D03*
%TD*%
D16*
%TO.C,C31*%
X96055000Y-93375000D03*
X95095000Y-93375000D03*
%TD*%
D28*
%TO.C,R2*%
X116175000Y-106940000D03*
X116175000Y-107960000D03*
%TD*%
D30*
%TO.C,U2*%
X69425000Y-95825000D03*
X69425000Y-95175000D03*
X69425000Y-94525000D03*
X69425000Y-93875000D03*
X69425000Y-93225000D03*
X69425000Y-92575000D03*
X69425000Y-91925000D03*
X69425000Y-91275000D03*
X69425000Y-90625000D03*
X69425000Y-89975000D03*
X69425000Y-89325000D03*
X69425000Y-88675000D03*
X69425000Y-88025000D03*
X69425000Y-87375000D03*
X63700000Y-87375000D03*
X63700000Y-88025000D03*
X63700000Y-88675000D03*
X63700000Y-89325000D03*
X63700000Y-89975000D03*
X63700000Y-90625000D03*
X63700000Y-91275000D03*
X63700000Y-91925000D03*
X63700000Y-92575000D03*
X63700000Y-93225000D03*
X63700000Y-93875000D03*
X63700000Y-94525000D03*
X63700000Y-95175000D03*
X63700000Y-95825000D03*
%TD*%
D27*
%TO.C,Y2*%
X95000000Y-89925000D03*
X97200000Y-89925000D03*
X97200000Y-88225000D03*
X95000000Y-88225000D03*
%TD*%
D22*
%TO.C,C23*%
X104045000Y-101450000D03*
X105005000Y-101450000D03*
%TD*%
%TO.C,C34*%
X99940000Y-85650000D03*
X100900000Y-85650000D03*
%TD*%
D24*
%TO.C,R6*%
X78580000Y-81900000D03*
X77560000Y-81900000D03*
%TD*%
D31*
%TO.C,C7*%
X122600000Y-86750000D03*
X124150000Y-86750000D03*
%TD*%
D19*
%TO.C,R19*%
X95855000Y-91400000D03*
X96875000Y-91400000D03*
%TD*%
%TO.C,R22*%
X116065000Y-95050000D03*
X117085000Y-95050000D03*
%TD*%
D26*
%TO.C,J7*%
X73175000Y-83975000D03*
X71905000Y-79475000D03*
X70635000Y-83975000D03*
X69365000Y-79475000D03*
%TD*%
D12*
%TO.C,R20*%
X99850000Y-89095000D03*
X99850000Y-88075000D03*
%TD*%
D20*
%TO.C,L3*%
X104645000Y-88770000D03*
X103095000Y-88770000D03*
%TD*%
D24*
%TO.C,R5*%
X85000000Y-73700000D03*
X83980000Y-73700000D03*
%TD*%
D20*
%TO.C,C13*%
X108955000Y-120050000D03*
X107405000Y-120050000D03*
%TD*%
D32*
%TO.C,U6*%
X103274000Y-94108000D03*
X101954000Y-94108000D03*
X100634000Y-94108000D03*
X99314000Y-94108000D03*
X103274000Y-95428000D03*
X101954000Y-95428000D03*
X100634000Y-95428000D03*
X99314000Y-95428000D03*
X103274000Y-96748000D03*
X101954000Y-96748000D03*
X100634000Y-96748000D03*
X99314000Y-96748000D03*
X103274000Y-98068000D03*
X101954000Y-98068000D03*
X100634000Y-98068000D03*
X99314000Y-98068000D03*
D33*
X104044000Y-92638000D03*
X103544000Y-92638000D03*
X103044000Y-92638000D03*
X102544000Y-92638000D03*
X102044000Y-92638000D03*
X101544000Y-92638000D03*
X101044000Y-92638000D03*
X100544000Y-92638000D03*
X100044000Y-92638000D03*
X99544000Y-92638000D03*
X99044000Y-92638000D03*
X98544000Y-92638000D03*
D34*
X97844000Y-93338000D03*
X97844000Y-93838000D03*
X97844000Y-94338000D03*
X97844000Y-94838000D03*
X97844000Y-95338000D03*
X97844000Y-95838000D03*
X97844000Y-96338000D03*
X97844000Y-96838000D03*
X97844000Y-97338000D03*
X97844000Y-97838000D03*
X97844000Y-98338000D03*
X97844000Y-98838000D03*
D33*
X98544000Y-99538000D03*
X99044000Y-99538000D03*
X99544000Y-99538000D03*
X100044000Y-99538000D03*
X100544000Y-99538000D03*
X101044000Y-99538000D03*
X101544000Y-99538000D03*
X102044000Y-99538000D03*
X102544000Y-99538000D03*
X103044000Y-99538000D03*
X103544000Y-99538000D03*
X104044000Y-99538000D03*
D34*
X104744000Y-98838000D03*
X104744000Y-98338000D03*
X104744000Y-97838000D03*
X104744000Y-97338000D03*
X104744000Y-96838000D03*
X104744000Y-96338000D03*
X104744000Y-95838000D03*
X104744000Y-95338000D03*
X104744000Y-94838000D03*
X104744000Y-94338000D03*
X104744000Y-93838000D03*
X104744000Y-93338000D03*
%TD*%
D16*
%TO.C,C38*%
X99640000Y-90150000D03*
X98680000Y-90150000D03*
%TD*%
D35*
%TO.C,C36*%
X113105000Y-73320000D03*
X116055000Y-73320000D03*
%TD*%
D14*
%TO.C,C9*%
X118630000Y-122330000D03*
X118630000Y-123880000D03*
%TD*%
D13*
%TO.C,Q4*%
X64050000Y-100625000D03*
X65950000Y-100625000D03*
X65000000Y-98350000D03*
%TD*%
D26*
%TO.C,J8*%
X63940000Y-71475000D03*
X65210000Y-75975000D03*
X66480000Y-71475000D03*
X67750000Y-75975000D03*
%TD*%
D36*
%TO.C,U5*%
X114650000Y-115762500D03*
X114650000Y-117362500D03*
X116250000Y-115762500D03*
X116250000Y-117362500D03*
D37*
X112012500Y-113962500D03*
X112012500Y-114362500D03*
X112012500Y-114762500D03*
X112012500Y-115162500D03*
X112012500Y-115562500D03*
X112012500Y-115962500D03*
X112012500Y-116362500D03*
X112012500Y-116762500D03*
X112012500Y-117162500D03*
X112012500Y-117562500D03*
X112012500Y-117962500D03*
X112012500Y-118362500D03*
X112012500Y-118762500D03*
X112012500Y-119162500D03*
D38*
X112850000Y-120000000D03*
X113250000Y-120000000D03*
X113650000Y-120000000D03*
X114050000Y-120000000D03*
X114450000Y-120000000D03*
X114850000Y-120000000D03*
X115250000Y-120000000D03*
X115650000Y-120000000D03*
X116050000Y-120000000D03*
X116450000Y-120000000D03*
X116850000Y-120000000D03*
X117250000Y-120000000D03*
X117650000Y-120000000D03*
X118050000Y-120000000D03*
D37*
X118887500Y-119162500D03*
X118887500Y-118762500D03*
X118887500Y-118362500D03*
X118887500Y-117962500D03*
X118887500Y-117562500D03*
X118887500Y-117162500D03*
X118887500Y-116762500D03*
X118887500Y-116362500D03*
X118887500Y-115962500D03*
X118887500Y-115562500D03*
X118887500Y-115162500D03*
X118887500Y-114762500D03*
X118887500Y-114362500D03*
X118887500Y-113962500D03*
D38*
X118050000Y-113125000D03*
X117650000Y-113125000D03*
X117250000Y-113125000D03*
X116850000Y-113125000D03*
X116450000Y-113125000D03*
X116050000Y-113125000D03*
X115650000Y-113125000D03*
X115250000Y-113125000D03*
X114850000Y-113125000D03*
X114450000Y-113125000D03*
X114050000Y-113125000D03*
X113650000Y-113125000D03*
X113250000Y-113125000D03*
X112850000Y-113125000D03*
%TD*%
D21*
%TO.C,C11*%
X117425000Y-109955000D03*
X117425000Y-108995000D03*
%TD*%
D12*
%TO.C,R12*%
X98900000Y-84695000D03*
X98900000Y-83675000D03*
%TD*%
D15*
%TO.C,C1*%
X74100000Y-89865000D03*
X74100000Y-90825000D03*
%TD*%
D12*
%TO.C,R14*%
X103975000Y-84695000D03*
X103975000Y-83675000D03*
%TD*%
D13*
%TO.C,Q3*%
X82150000Y-100625000D03*
X84050000Y-100625000D03*
X83100000Y-98350000D03*
%TD*%
D21*
%TO.C,C14*%
X115925000Y-109925000D03*
X115925000Y-108965000D03*
%TD*%
M02*
